\relax 
\catcode `:\active 
\catcode `;\active 
\catcode `!\active 
\catcode `?\active 
\select@language{french}
\@writefile{toc}{\select@language{french}}
\@writefile{lof}{\select@language{french}}
\@writefile{lot}{\select@language{french}}
\@writefile{toc}{\contentsline {part}{I\hspace  {1em}Duopole de Cournot}{2}}
\@writefile{toc}{\contentsline {chapter}{\numberline {1}Pr\'esentation du probl\`eme}{3}}
\@writefile{lof}{\addvspace {10\p@ }}
\@writefile{lot}{\addvspace {10\p@ }}
\@writefile{loa}{\addvspace {10\p@ }}
\@writefile{toc}{\contentsline {chapter}{\numberline {2}\'Elements de r\'esolution}{4}}
\@writefile{lof}{\addvspace {10\p@ }}
\@writefile{lot}{\addvspace {10\p@ }}
\@writefile{loa}{\addvspace {10\p@ }}
\@writefile{toc}{\contentsline {section}{\numberline {2.1}Lutter contre une strat\'egie coop\'erative}{4}}
\@writefile{toc}{\contentsline {section}{\numberline {2.2}Lutter contre une strat\'egie affine}{4}}
\@writefile{toc}{\contentsline {section}{\numberline {2.3}Lutter contre une strat\'egie non-coop\'erative}{4}}
\@writefile{toc}{\contentsline {section}{\numberline {2.4}Lutter contre une strat\'egie de Stackelberg}{4}}
\@writefile{toc}{\contentsline {chapter}{\numberline {3}Notre impl\'ementation de strat\'egie}{5}}
\@writefile{lof}{\addvspace {10\p@ }}
\@writefile{lot}{\addvspace {10\p@ }}
\@writefile{loa}{\addvspace {10\p@ }}
\@writefile{toc}{\contentsline {section}{\numberline {3.1}Id\'ee g\'en\'erale}{5}}
\@writefile{toc}{\contentsline {section}{\numberline {3.2}Apprentissage}{5}}
\@writefile{toc}{\contentsline {section}{\numberline {3.3}R\'esultats}{5}}
\@writefile{toc}{\contentsline {section}{\numberline {3.4}Approfondissement}{6}}
\@writefile{toc}{\contentsline {chapter}{\numberline {4}Cha\IeC {\^\i }nes de Markov}{7}}
\@writefile{lof}{\addvspace {10\p@ }}
\@writefile{lot}{\addvspace {10\p@ }}
\@writefile{loa}{\addvspace {10\p@ }}
\@writefile{toc}{\contentsline {section}{\numberline {4.1}Pr\'esentation du probl\`eme}{7}}
\@writefile{toc}{\contentsline {section}{\numberline {4.2}\'Etude du syst\`eme}{7}}
\@writefile{toc}{\contentsline {section}{\numberline {4.3}Calcul du revenu hebdomadaire moyen}{8}}
\@writefile{toc}{\contentsline {section}{\numberline {4.4}Solution au probl\`eme}{8}}
