\select@language {french}
\contentsline {part}{I\hspace {1em}Teddy}{2}
\contentsline {chapter}{\numberline {1}Pr\'esentation du probl\`eme}{3}
\contentsline {chapter}{\numberline {2}Impl\'ementation}{4}
\contentsline {section}{\numberline {2.1}Analyse}{4}
\contentsline {section}{\numberline {2.2}Notre impl\'ementation}{4}
\contentsline {part}{II\hspace {1em}Mickey}{5}
\contentsline {chapter}{\numberline {3}Pr\'esentation du probl\`eme}{6}
