\relax 
\catcode `:\active 
\catcode `;\active 
\catcode `!\active 
\catcode `?\active 
\select@language{french}
\@writefile{toc}{\select@language{french}}
\@writefile{lof}{\select@language{french}}
\@writefile{lot}{\select@language{french}}
\@writefile{toc}{\contentsline {part}{I\hspace  {1em}Teddy}{2}}
\@writefile{toc}{\contentsline {chapter}{\numberline {1}Pr\'esentation du probl\`eme}{3}}
\@writefile{lof}{\addvspace {10\p@ }}
\@writefile{lot}{\addvspace {10\p@ }}
\@writefile{loa}{\addvspace {10\p@ }}
\@writefile{toc}{\contentsline {chapter}{\numberline {2}Impl\'ementation}{4}}
\@writefile{lof}{\addvspace {10\p@ }}
\@writefile{lot}{\addvspace {10\p@ }}
\@writefile{loa}{\addvspace {10\p@ }}
\@writefile{toc}{\contentsline {section}{\numberline {2.1}Analyse}{4}}
\@writefile{toc}{\contentsline {section}{\numberline {2.2}Notre impl\'ementation}{4}}
\@writefile{toc}{\contentsline {part}{II\hspace  {1em}Mickey}{5}}
\@writefile{toc}{\contentsline {chapter}{\numberline {3}Pr\'esentation du probl\`eme}{6}}
\@writefile{lof}{\addvspace {10\p@ }}
\@writefile{lot}{\addvspace {10\p@ }}
\@writefile{loa}{\addvspace {10\p@ }}
